Name,Age,Division,Equipment,BodyweightKg,WeightClassKg,Squat1Kg,Squat2Kg,Squat3Kg,Best3SquatKg,Bench1Kg,Bench2Kg,Bench3Kg,Best3BenchKg,Deadlift1Kg,Deadlift2Kg,Deadlift3Kg,Best3DeadliftKg,TotalKg,Place,Sex,Event,BirthDate
Eduardo Martinez,20,MORE,Raw,82,82.5,145,157.5,170,170,102.5,110,117.5,117.5,185,202.5,-212.5,202.5,490,1,M,SBD,
Adrian Rodriguez-Padilla,20,MORE,Raw,98.6,100,117.5,130,140,140,85,95,-100,95,110,137.5,162.5,162.5,397.5,1,M,SBD,
Osmar Franco,19,MOR-AD,Wraps,74.2,75,-245,-245,245,245,140,145,150,150,235,252.5,265,265,660,1,M,SBD,
Joel Watchorn,21,MOR-AD,Wraps,109.8,110,275,290,305,305,110,120,-127.5,120,235,247.5,255,255,680,1,M,SBD,
Alexander Patterson,27,MOR-AD,Wraps,112,125,207.5,230,-247.5,230,140,150,165,165,202.5,227.5,247.5,247.5,642.5,1,M,SBD,
Kody Gray,22,MOR,Wraps,65.2,67.5,120,132.5,140,140,70,82.5,90,90,150,167.5,185,185,415,1,M,SBD,
Osmar Franco,19,MOR,Wraps,74.2,75,-245,-245,245,245,140,145,150,150,235,252.5,265,265,660,1,M,SBD,
Adolfo Arenas,26,MOR,Wraps,74.8,75,180,192.5,-207.5,192.5,95,105,115,115,175,182.5,207.5,207.5,515,2,M,SBD,
Jacob Haefs,29,MOR,Wraps,82,82.5,102.5,112.5,130,130,95,102.5,-107.5,102.5,192.5,215,227.5,227.5,460,1,M,SBD,
Kolby Harrington,19,MOR,Wraps,84.8,90,-265,265,-275,265,135,-137.5,-137.5,135,275,-292.5,,275,675,1,M,SBD,
Dillon Jensen,29,MOR,Wraps,88.6,90,205,215,227.5,227.5,135,145,-150,145,260,272.5,280,280,652.5,2,M,SBD,
Alex Pick,29,MOR,Wraps,88.8,90,220,237.5,250,250,-137.5,147.5,-157.5,147.5,215,230,-242.5,230,627.5,3,M,SBD,
Joe McCann,29,MOR,Wraps,89,90,155,170,182.5,182.5,107.5,115,-117.5,115,182.5,202.5,-227.5,202.5,500,4,M,SBD,
Dustin Bainbridge,21,MOR,Wraps,86.8,90,147.5,167.5,-182.5,167.5,97.5,107.5,-115,107.5,170,187.5,200,200,475,5,M,SBD,
Mitchell Fricke,32,MOR,Wraps,96.6,100,310,320,-332.5,320,180,187.5,-197.5,187.5,237.5,252.5,272.5,272.5,780,1,M,SBD,
Christian Wheeler,27,MOR,Wraps,98,100,235,250,,250,165,175,-182.5,175,227.5,240,250,250,675,2,M,SBD,
Austin Carlson,32,MOR,Wraps,99.8,100,-255,255,275,275,140,150,155,155,212.5,230,237.5,237.5,667.5,3,M,SBD,
Andrew Hessa,19,MOR,Wraps,99.8,100,227.5,242.5,250,250,137.5,152.5,160,160,227.5,245,257.5,257.5,667.5,3,M,SBD,
Joshua Hepburn,30,MOR,Wraps,99.2,100,250,267.5,-272.5,267.5,137.5,-147.5,147.5,147.5,227.5,247.5,-262.5,247.5,662.5,5,M,SBD,
Collin Becker,19,MOR,Wraps,95.2,100,215,230,242.5,242.5,125,137.5,-142.5,137.5,227.5,250,-272.5,250,630,6,M,SBD,
Dillon Rosener,23,MOR,Wraps,97.2,100,205,215,227.5,227.5,112.5,132.5,-137.5,132.5,210,235,240,240,600,7,M,SBD,
Ryan Marx,33,MOR,Wraps,98.4,100,215,227.5,232.5,232.5,125,135,137.5,137.5,197.5,212.5,-220,212.5,582.5,8,M,SBD,
Cole Heimer,27,MOR,Wraps,91.6,100,115,-147.5,-147.5,115,92.5,-100,-100,92.5,160,172.5,-182.5,172.5,380,9,M,SBD,
Jose Mendoza #3,22,MOR,Wraps,92.4,100,-240,-240,-240,,,,,,,,,,,DQ,M,SBD,
Ron Eaton,42,MOR,Wraps,109.8,110,295,322.5,-335,322.5,192.5,202.5,210,210,282.5,295,-307.5,295,827.5,1,M,SBD,
Jakob Cook,41,MOR,Wraps,109.2,110,242.5,255,272.5,272.5,182.5,195,,195,242.5,265,282.5,282.5,750,2,M,SBD,
Joel Watchorn,21,MOR,Wraps,109.8,110,275,290,305,305,110,120,-127.5,120,235,247.5,255,255,680,3,M,SBD,
Paul Andersen,32,MOR,Wraps,108.2,110,217.5,230,-242.5,230,145,155,165,165,215,230,240,240,635,4,M,SBD,
Eric Divis,19,MOR,Wraps,106,110,250,262.5,-272.5,262.5,112.5,125,-137.5,125,212.5,230,237.5,237.5,625,5,M,SBD,
Johnny Tureaud,18,MOR,Wraps,109,110,195,215,227.5,227.5,167.5,180,-187.5,180,185,197.5,215,215,622.5,6,M,SBD,
Dennis Park,26,MOR,Wraps,109.6,110,215,230,,230,142.5,150,-157.5,150,210,222.5,-235,222.5,602.5,7,M,SBD,
Luke Uribe,40,MOR,Wraps,121.6,125,-410,427.5,,427.5,150,182.5,227.5,227.5,272.5,290,302.5,302.5,957.5,1,M,SBD,
Mike Langel,28,MOR,Wraps,120,125,267.5,285,295,295,172.5,182.5,185,185,260,275,290,290,770,2,M,SBD,
Corey Duckett,39,MOR,Wraps,124.2,125,227.5,250,260,260,147.5,152.5,160,160,250,-267.5,-267.5,250,670,3,M,SBD,
Alexander Patterson,27,MOR,Wraps,112,125,207.5,230,-247.5,230,140,150,165,165,202.5,227.5,247.5,247.5,642.5,4,M,SBD,
James Ratley,18,MOR,Wraps,121.2,125,192.5,210,-215,210,95,-105,105,105,192.5,-202.5,-202.5,192.5,507.5,5,M,SBD,
Austin Homan,27,MOR,Wraps,126.8,140,272.5,295,307.5,307.5,170,182.5,187.5,187.5,265,290,300,300,795,1,M,SBD,
Adam Harrington,40,MOR,Wraps,136.2,140,365,-380,,365,50,,,50,310,332.5,-337.5,332.5,747.5,2,M,SBD,
Alex Anderson #1,25,MOR,Wraps,129,140,220,237.5,-245,237.5,-170,170,-182.5,170,232.5,255,-265,255,662.5,3,M,SBD,
Brian Tapia,20,MOR,Wraps,131.6,140,232.5,247.5,267.5,267.5,145,155,-165,155,227.5,237.5,-245,237.5,660,4,M,SBD,
Bryce Snyder,31,MOR,Wraps,145.2,140+,235,260,-275,260,142.5,157.5,165,165,305,325,327.5,327.5,752.5,1,M,SBD,
Bobby Lawson,21,MJ,Multi-ply,120.6,125,355,367.5,377.5,377.5,-225,225,-235,225,272.5,300,-307.5,300,902.5,1,M,SBD,
Bobby Lawson,21,MO,Multi-ply,120.6,125,355,367.5,377.5,377.5,-225,225,-235,225,272.5,300,-307.5,300,902.5,1,M,SBD,
Lauren Kounkel,14,FT1R-AD,Wraps,89.8,90,90,97.5,105,105,52.5,-57.5,57.5,57.5,125,142.5,-145,142.5,305,1,F,SBD,
Susan Casey,50,FM3R,Wraps,73.4,75,77.5,87.5,115,115,47.5,57.5,62.5,62.5,102.5,120,140,140,317.5,1,F,SBD,
Deanne Gibson,60,FM5R,Wraps,66.8,67.5,85,-92.5,-92.5,85,47.5,52.5,-55,52.5,90,100,107.5,107.5,245,1,F,SBD,
Monique Torra,35,FSR,Wraps,80.6,82.5,115,-122.5,-122.5,115,47.5,52.5,-57.5,52.5,112.5,122.5,137.5,137.5,305,1,F,SBD,
Morgan Swick,19,FT3R,Wraps,54,56,87.5,92.5,100,100,47.5,52.5,-55,52.5,112.5,-125,-125,112.5,265,1,F,SBD,
Devon Colony,19,FT3R,Wraps,80.6,82.5,102.5,115,-122.5,115,-47.5,50,-60,50,125,137.5,147.5,147.5,312.5,2,F,SBD,
Samantha Quillen,18,FT3R,Wraps,99.6,90+,87.5,97.5,105,105,40,50,-55,50,127.5,137.5,142.5,142.5,297.5,3,F,SBD,
Cindy Alcaraz-Dubon JR,21,FJR,Wraps,60,60,87.5,97.5,-110,97.5,42.5,47.5,-55,47.5,102.5,110,115,115,260,1,F,SBD,
Olivia Compas,16,FT2R,Wraps,59.8,60,-100,100,115,115,40,42.5,-45,42.5,105,107.5,112.5,112.5,270,1,F,SBD,
Aubrie Harrington,17,FT2R,Wraps,54.2,56,77.5,87.5,92.5,92.5,37.5,-45,-45,37.5,70,80,95,95,225,2,F,SBD,
Lauren Kounkel,14,FT1R,Wraps,88.8,90,90,97.5,105,105,52.5,-57.5,57.5,57.5,125,142.5,-145,142.5,305,1,F,SBD,
Beatriz Hoyos-Ponce,29,FOR,Wraps,51.6,52,92.5,97.5,107.5,107.5,47.5,52.5,-60,52.5,97.5,105,-110,105,265,1,F,SBD,
Sara Smith #5,24,FOR,Wraps,51.4,52,92.5,-102.5,-102.5,92.5,37.5,40,-42.5,40,105,110,-115,110,242.5,2,F,SBD,
Jennifer Martinez #12,21,FOR,Wraps,58.8,60,107.5,120,132.5,132.5,42.5,47.5,-50,47.5,97.5,105,115,115,295,1,F,SBD,
Olivia Compas,16,FOR,Wraps,59.8,60,-100,100,115,115,40,42.5,-45,42.5,105,107.5,112.5,112.5,270,2,F,SBD,
Cindy Alcaraz-Dubon,21,FOR,Wraps,60,60,87.5,97.5,-110,97.5,42.5,47.5,-55,47.5,102.5,110,115,115,260,3,F,SBD,
Kelsey Paskert,30,FOR,Wraps,67.4,67.5,205,217.5,227.5,227.5,110,120,125,125,200,212.5,220,220,572.5,1,F,SBD,
Kara Shamburg,25,FOR,Wraps,65.6,67.5,120,130,140,140,55,62.5,67.5,67.5,120,127.5,140,140,347.5,2,F,SBD,
Caitlin Frankl,30,FOR,Wraps,73.2,75,215,227.5,-232.5,227.5,92.5,-100,-100,92.5,202.5,-220,-220,202.5,522.5,1,F,SBD,
Kurtrina Olund,23,FOR,Wraps,74,75,97.5,102.5,107.5,107.5,50,57.5,-62.5,57.5,100,107.5,-112.5,107.5,272.5,2,F,SBD,
Devon Colony,19,FOR,Wraps,81.6,82.5,102.5,115,-122.5,115,-47.5,50,-60,50,125,137.5,147.5,147.5,312.5,1,F,SBD,
Caitlin Marsh,28,FOR,Wraps,81.22,82.5,60,67.5,-77.5,67.5,37.5,42.5,-45,42.5,65,75,,75,185,2,F,SBD,
Erin Schleicher,24,FOR,Wraps,89.8,90,172.5,190,205,205,72.5,82.5,87.5,87.5,165,175,182.5,182.5,475,1,F,SBD,
Ashlie Hepburn,27,FOR,Wraps,83.4,90,115,130,137.5,137.5,47.5,52.5,-60,52.5,105,115,127.5,127.5,317.5,2,F,SBD,
Jennifer Martinez #12,21,FOR-AD,Wraps,58.8,60,107.5,120,132.5,132.5,42.5,47.5,-50,47.5,97.5,105,115,115,295,1,F,SBD,
Cindy Alcaraz-Dubon,21,FOR-AD,Wraps,60,60,87.5,97.5,-110,97.5,42.5,47.5,-55,47.5,102.5,110,115,115,260,2,F,SBD,
Landon Fox,17,MT2RE-AD,Raw,66.6,67.5,102.5,107.5,120,120,92.5,100,-105,100,150,157.5,162.5,162.5,382.5,1,M,SBD,
Landon Fox,17,MT2RE,Raw,66.6,67.5,102.5,107.5,120,120,92.5,100,-105,100,150,157.5,162.5,162.5,382.5,1,M,SBD,
Nathan Barnard,18,MT3RE,Raw,85.4,90,160,175,185,185,92.5,97.5,105,105,177.5,190,200,200,490,1,M,SBD,
Michael Peterson,23,MJRE,Raw,93.4,100,210,220,230,230,150,160,-167.5,160,240,255,-272.5,255,645,1,M,SBD,
Tim Walden,54,MM3R,Wraps,117,125,-205,205,210,210,137.5,145,-160,145,205,210,-217.5,210,565,1,M,SBD,
Zai Arana,18,MT3R,Wraps,66.8,67.5,140,155,170,170,75,82.5,-87.5,82.5,170,185,190,190,442.5,1,M,SBD,
Peyton Martinez,16,MT2R,Wraps,73.8,75,150,162.5,182.5,182.5,92.5,100,102.5,102.5,150,162.5,172.5,172.5,457.5,1,M,SBD,
Taylor Cogdill,17,MT2R,Wraps,76.6,82.5,130,135,150,150,-85,90,-95,90,175,180,-190,180,420,2,M,SBD,
Lucas Moulton,16,MT2R,Wraps,71.2,75,90,97.5,105,105,72.5,80,85,85,102.5,122.5,140,140,330,3,M,SBD,
Max Harrington,13,MT1R,Wraps,92.6,100,142.5,162.5,-177.5,162.5,62.5,75,82.5,82.5,182.5,205,-227.5,205,450,1,M,SBD,
Noah Chartier,15,MT1R,Wraps,97.8,100,142.5,162.5,-177.5,162.5,87.5,97.5,-102.5,97.5,155,177.5,-187.5,177.5,437.5,2,M,SBD,
Marvin Harrington,15,MT1R,Wraps,141.6,140+,142.5,155,167.5,167.5,85,95,-102.5,95,170,182.5,195,195,457.5,3,M,SBD,
Jayden Goldsmith,14,MT1R,Wraps,82.4,82.5,112.5,127.5,137.5,137.5,62.5,-72.5,-72.5,62.5,137.5,150,165,165,365,4,M,SBD,
Cole Bader,16,MT2R-AD,Wraps,86.6,90,125,140,147.5,147.5,87.5,-97.5,-102.5,87.5,130,165,182.5,182.5,417.5,1,M,SBD,
Ryan Dodds,18,MT3,Multi-ply,119.2,125,162.5,172.5,182.5,182.5,95,105,112.5,112.5,170,182.5,197.5,197.5,492.5,1,M,SBD,
Abe Barron,30,MORE,Raw,80,82.5,,,,,130,140,-152.5,140,,,,,140,1,M,B,
Chad Harsma,47,MOR,Raw,119,125,,,,,150,-157.5,157.5,157.5,,,,,157.5,1,M,B,
Clint Jensen,57,MM4,Multi-ply,138.8,140,,,,,-197.5,197.5,-207.5,197.5,,,,,197.5,1,M,B,
Brian Forbes,38,MS,Multi-ply,141.2,140+,,,,,-410,-410,-417.5,,,,,,,DQ,M,B,
Cole Bader,16,MT2R,Raw,86.6,90,,,,,87.5,-97.5,-102.5,87.5,,,,,87.5,1,M,B,
Alex Herman,18,MT3R-AD,Raw,109.4,110,,,,,155,170,-177.5,170,,,,,170,1,M,B,
Rex Littell,37,MOR,Raw,81.4,82.5,,,,,,,,,152.5,167.5,-182.5,167.5,167.5,1,M,D,
Natasha Heath,21,FJR,Raw,85.6,90,,,,,52.5,60,65,65,97.5,-105,105,105,170,1,F,BD,
Ludy Harger,32,FOR,Raw,59.8,60,,,,,62.5,67.5,70,70,150,160,165,165,235,1,F,BD,
Makaden Craft,15,MT1R,Raw,126,140,,,,,-97.5,,,,,,,,,DQ,M,BD,
Cody Nilson,35,MOR,Raw,81.4,82.5,,,,,110,120,122.5,122.5,207.5,-217.5,-217.5,207.5,330,1,M,BD,
