Division,WeightClassKg,Place,Name,Team,BodyweightKg,Best3SquatKg,Best3BenchKg,Best3DeadliftKg,TotalKg,Equipment,Event,Sex
Freshmen,51.71,1,Frank Ybarra #2,Laredo Nixon,51.71,102.06,61.23,149.69,312.98,Single-ply,SBD,M
Freshmen,51.71,2,David Lozano,Roma,47.26,108.86,54.43,111.13,274.42,Single-ply,SBD,M
Freshmen,51.71,3,Leo Maldonado,Roma,48.26,83.91,36.29,90.72,210.92,Single-ply,SBD,M
Freshmen,51.71,DQ,Martin Rivera,Laredo Nixon,46.9,83.91,,,,Single-ply,SBD,M
Freshmen,55.79,1,Omar Barajas,Laredo Johnson,54.52,102.06,61.23,120.2,283.5,Single-ply,SBD,M
Freshmen,59.87,2,Leo Barrera,Laredo Nixon,56.02,92.99,61.23,117.93,272.16,Single-ply,SBD,M
Freshmen,55.79,3,Frank Rullan,Laredo Nixon,54.34,97.52,61.23,104.33,263.08,Single-ply,SBD,M
Freshmen,55.79,4,Guillermo Compton,Laredo Alexander,54.43,77.11,49.9,113.4,240.4,Single-ply,SBD,M
Freshmen,59.87,1,Ab Vasquez,Laredo Cigarroa,59.33,133.81,74.84,158.76,367.41,Single-ply,SBD,M
Freshmen,67.13,2,Hector Garnica,Laredo United South,60.06,131.54,63.5,151.95,347,Single-ply,SBD,M
Freshmen,59.87,3,Reno Saenz,Hebbronville,59.15,113.4,72.57,127.01,312.98,Single-ply,SBD,M
Freshmen,67.13,4,Miguel Luna,Laredo Johnson,60.06,83.91,63.5,115.67,263.08,Single-ply,SBD,M
Freshmen,59.87,5,Albert Salinas,Laredo Nixon,57.52,92.99,47.63,120.2,260.82,Single-ply,SBD,M
Freshmen,59.87,6,Ricky Sanchez,Laredo Johnson,57.79,95.25,52.16,113.4,260.82,Single-ply,SBD,M
Freshmen,59.87,7,Carlos Ramirez #5,Laredo Cigarroa,57.97,79.38,52.16,111.13,242.67,Single-ply,SBD,M
Freshmen,59.87,8,Adrian Verduzco,Laredo Cigarroa,56.88,79.38,,,79.38,Single-ply,S,M
Freshmen,67.13,DQ,Abraham Menences,Laredo Martin,60.06,,,,,Single-ply,S,M
Freshmen,59.87,DQ,Derek Mendiola,Laredo Johnson,59.42,,,,,Single-ply,S,M
Freshmen,67.13,1,Josue Tibias,Laredo Nixon,63.41,181.44,97.52,192.78,471.74,Single-ply,SBD,M
Freshmen,67.13,2,Rafael Garcia,Roma,67.13,129.27,72.57,165.56,367.41,Single-ply,SBD,M
Freshmen,67.13,3,Ricardo Gonzalez,Laredo Nixon,65.41,140.61,72.57,145.15,358.34,Single-ply,SBD,M
Freshmen,67.13,4,Sergio Ponce,Laredo Martin,61.6,106.59,63.5,138.35,308.44,Single-ply,SBD,M
Freshmen,67.13,5,Jacob McCoy,Laredo Nixon,65.41,108.86,70.31,127.01,306.17,Single-ply,SBD,M
Freshmen,67.13,6,Peter Barrios,Laredo Martin,64.14,104.33,61.23,136.08,301.64,Single-ply,SBD,M
Freshmen,67.13,7,Albert Betancourt,Laredo Johnson,60.87,92.99,65.77,117.93,276.69,Single-ply,SBD,M
Freshmen,67.13,8,Hector Cruz,Laredo Alexander,66.68,88.45,68.04,108.86,265.35,Single-ply,SBD,M
Freshmen,67.13,9,Robert Blanco,Laredo Cigarroa,64.95,77.11,52.16,127.01,256.28,Single-ply,SBD,M
Freshmen,67.13,10,Christopher Chavez #2,Laredo Martin,62.23,90.72,43.09,117.93,251.74,Single-ply,SBD,M
Freshmen,67.13,11,Gabriel Bautista,Zapata,64.05,127.01,,,127.01,Single-ply,S,M
Freshmen,67.13,12,Mark Garcia,Laredo Cigarroa,66.41,92.99,,,92.99,Single-ply,S,M
Freshmen,67.13,DQ,Erick Oliva,Laredo Nixon,65.77,124.74,,,,Single-ply,S,M
Freshmen,74.84,1,Joseph Jimenez,Laredo United South,74.66,174.63,102.06,199.58,476.27,Single-ply,SBD,M
Freshmen,74.84,2,Nathaniel McRae,Hebbronville,70.58,156.49,90.72,185.97,433.18,Single-ply,SBD,M
Freshmen,74.84,3,Omar Galan,Laredo Alexander,72.76,154.22,97.52,170.1,421.84,Single-ply,SBD,M
Freshmen,74.84,4,Mark Avila,Hebbronville,68.76,136.08,74.84,181.44,392.36,Single-ply,SBD,M
Freshmen,74.84,5,Mateo Mendoza,Zapata,68.67,124.74,77.11,163.29,365.14,Single-ply,SBD,M
Freshmen,74.84,6,Miguel Guantos,Laredo United South,74.21,120.2,63.5,142.88,326.59,Single-ply,SBD,M
Freshmen,74.84,7,Bryan Cruz,Laredo Johnson,70.03,108.86,81.65,124.74,315.25,Single-ply,SBD,M
Freshmen,74.84,8,German Rios,Laredo Cigarroa,73.57,104.33,70.31,140.61,315.25,Single-ply,SBD,M
Freshmen,74.84,9,Hiram Olvera,Laredo Martin,74.57,102.06,68.04,127.01,297.1,Single-ply,SBD,M
Freshmen,74.84,10,Jorge Flores,Laredo Martin,71.76,104.33,65.77,120.2,290.3,Single-ply,SBD,M
Freshmen,74.84,11,Israel Garza,Laredo Cigarroa,68.58,95.25,56.7,127.01,278.96,Single-ply,SBD,M
Freshmen,74.84,12,Joshua Mercado,Laredo Alexander,67.4,92.99,68.04,113.4,274.42,Single-ply,SBD,M
Freshmen,74.84,13,Isaac Garcia,Laredo United,69.4,92.99,43.09,122.47,258.55,Single-ply,SBD,M
Freshmen,82.1,1,Luis Enriquez,Laredo Nixon,80.56,179.17,88.45,183.7,451.32,Single-ply,SBD,M
Freshmen,82.1,2,Joel Manzo,Laredo Nixon,80.29,145.15,95.25,179.17,419.57,Single-ply,SBD,M
Freshmen,82.1,3,Mario Villalobos,Laredo United South,81.01,154.22,81.65,151.95,387.82,Single-ply,SBD,M
Freshmen,89.81,4,Cristobal Moreno,Roma,82.28,124.74,74.84,145.15,344.73,Single-ply,SBD,M
Freshmen,89.81,1,Kyle Calderon,Laredo United South,87.18,167.83,115.67,190.51,474,Single-ply,SBD,M
Freshmen,89.81,2,Austin Dale,Hebbronville,84.37,170.1,81.65,170.1,421.84,Single-ply,SBD,M
Freshmen,89.81,3,Ozziel Cardenas,Laredo Nixon,87.27,122.47,104.33,140.61,367.41,Single-ply,SBD,M
Freshmen,89.81,4,Pablo Huerta,Laredo Alexander,83.55,111.13,74.84,117.93,303.91,Single-ply,SBD,M
Freshmen,89.81,5,Jan Perez,Laredo Alexander,89.27,97.52,70.31,131.54,299.37,Single-ply,SBD,M
Freshmen,89.81,6,Mark Rubio,Laredo Alexander,83.37,92.99,58.97,111.13,263.08,Single-ply,SBD,M
Freshmen,99.79,1,Franciso Torrecilla,Laredo Nixon,94.17,183.7,70.31,190.51,444.52,Single-ply,SBD,M
Freshmen,99.79,2,Juan Ramirez,Roma,94.89,172.37,81.65,181.44,435.45,Single-ply,SBD,M
Freshmen,99.79,3,Victor Lozano,Laredo Nixon,90.45,140.61,68.04,158.76,367.41,Single-ply,SBD,M
Freshmen,99.79,4,Aurelio Guzman,Laredo Martin,98.7,133.81,83.91,149.69,367.41,Single-ply,SBD,M
Freshmen,99.79,5,Efren Molina,Laredo Martin,95.07,129.27,77.11,133.81,340.19,Single-ply,SBD,M
Freshmen,99.79,6,Marco Aranda,Laredo Nixon,90.99,131.54,63.5,133.81,328.85,Single-ply,SBD,M
Freshmen,99.79,7,Brian Flores,Laredo Nixon,99.7,124.74,68.04,133.81,326.59,Single-ply,SBD,M
Freshmen,99.79,8,Joel Vedia,Laredo Johnson,93.62,120.2,72.57,108.86,301.64,Single-ply,SBD,M
Freshmen,99.79,9,Jesus Moreno,Laredo Alexander,93.8,106.59,72.57,120.2,299.37,Single-ply,SBD,M
Freshmen,99.79,10,Joseph Gamez,Laredo United,96.71,72.57,68.04,154.22,294.84,Single-ply,SBD,M
Freshmen,109.77,1,Eric Chapa,Zapata,102.51,188.24,102.06,179.17,469.47,Single-ply,SBD,M
Freshmen,109.77,2,Eric Garza,Roma,109.41,172.37,86.18,172.37,430.91,Single-ply,SBD,M
Freshmen,109.77,3,Erik Huerta,Laredo United South,109.32,163.29,99.79,165.56,428.64,Single-ply,SBD,M
Freshmen,109.77,4,Pedro Escobedo,Laredo United South,106.87,151.95,86.18,156.49,394.63,Single-ply,SBD,M
Freshmen,109.77,5,Angel Garza,Laredo Nixon,102.87,136.08,86.18,158.76,381.02,Single-ply,SBD,M
Freshmen,109.77,6,Lazaro Leyva,Laredo Johnson,101.06,124.74,65.77,181.44,371.95,Single-ply,SBD,M
Freshmen,109.77,7,Albert Escobar,Roma,102.97,136.08,72.57,156.49,365.14,Single-ply,SBD,M
Freshmen,109.77,8,Mark Castillo #2,Laredo Alexander,108.23,102.06,88.45,154.22,344.73,Single-ply,SBD,M
Freshmen,109.77,9,Eliud Benavides,Laredo Martin,107.32,104.33,68.04,133.81,306.17,Single-ply,SBD,M
Freshmen,124.74,1,Jesus Zapata,Roma,114.21,235.87,136.08,208.65,580.6,Single-ply,SBD,M
Freshmen,124.74,2,Jose Marquez,Hebbronville,113.85,181.44,97.52,174.63,453.59,Single-ply,SBD,M
Freshmen,124.74,3,Reynaldo Martinez,Laredo Johnson,120.75,131.54,81.65,165.56,378.75,Single-ply,SBD,M
Freshmen,124.74,4,Juwan Arce,Laredo United South,111.49,124.74,79.38,158.76,362.87,Single-ply,SBD,M
Freshmen,124.74,5,Mario Riojas,Laredo United South,121.29,113.4,70.31,133.81,317.51,Single-ply,SBD,M
Boys,51.71,1,Hector Villegas,Roma,51.35,167.83,86.18,176.9,430.91,Single-ply,SBD,M
Boys,55.79,2,Randy Soliz,Hebbronville,51.89,163.29,83.91,165.56,412.77,Single-ply,SBD,M
Boys,51.71,3,Nikalas Rosell,Laredo Alexander,50.71,127.01,86.18,142.88,356.07,Single-ply,SBD,M
Boys,51.71,4,Robert Gonzalez,Laredo Cigarroa,50.26,120.2,72.57,127.01,319.78,Single-ply,SBD,M
Boys,51.71,5,Hector Lozano,Laredo United South,51.17,99.79,68.04,124.74,292.57,Single-ply,SBD,M
Boys,51.71,6,Raul Fuentes,Laredo Nixon,51.53,74.84,38.56,95.25,208.65,Single-ply,SBD,M
Boys,51.71,DQ,Nelson Carmona,Laredo Martin,45.54,,,,,Single-ply,SBD,M
Boys,55.79,1,Isaac Castillo,Laredo Cigarroa,55.52,183.7,90.72,181.44,455.86,Single-ply,SBD,M
Boys,55.79,2,Jesus Trevino,Zapata,55.43,154.22,83.91,172.37,410.5,Single-ply,SBD,M
Boys,55.79,3,Chris Marroquin,Hebbronville,52.62,142.88,81.65,158.76,383.29,Single-ply,SBD,M
Boys,55.79,4,Luis Garcia #4,Laredo Martin,54.7,117.93,63.5,136.08,317.51,Single-ply,SBD,M
Boys,67.13,1,Juan Carmona,Laredo United,60.06,142.88,102.06,183.7,428.64,Single-ply,SBD,M
Boys,59.87,2,Homer Flores,Laredo Nixon,58.97,147.42,70.31,174.63,392.36,Single-ply,SBD,M
Boys,59.87,3,Joe Torres #7,Laredo Nixon,59.06,136.08,81.65,172.37,390.09,Single-ply,SBD,M
Boys,67.13,4,Artemio Garcia,Zapata,60.1,145.15,95.25,142.88,383.29,Single-ply,SBD,M
Boys,67.13,5,Abraham Meneses,Laredo Martin,60.06,133.81,79.38,147.42,360.61,Single-ply,SBD,M
Boys,59.87,6,Jorge Arredondo,Hebbronville,57.88,129.27,90.72,138.35,358.34,Single-ply,SBD,M
Boys,59.87,7,Jonathan Yedia,Bruni,58.88,129.27,70.31,129.27,328.85,Single-ply,SBD,M
Boys,59.87,8,Carlos García,Zapata,58.15,92.99,68.04,122.47,283.5,Single-ply,SBD,M
Boys,67.13,1,Jonathan Pena,Laredo United South,64.59,208.65,122.47,204.12,535.24,Single-ply,SBD,M
Boys,74.84,2,Jesus Alan Gomez,Roma,67.36,183.7,115.67,206.38,505.76,Single-ply,SBD,M
Boys,67.13,3,Hector de la Rosa,Laredo United South,66.68,181.44,104.33,158.76,444.52,Single-ply,SBD,M
Boys,67.13,4,Rene Cabrera,Laredo Cigarroa,64.68,156.49,92.99,147.42,396.89,Single-ply,SBD,M
Boys,74.84,5,Paul Osorio,Laredo United,67.22,122.47,86.18,154.22,362.87,Single-ply,SBD,M
Boys,67.13,6,Alfonso Granger,Laredo Johnson,62.96,111.13,90.72,158.76,360.61,Single-ply,SBD,M
Boys,74.84,1,Marco DeLuna,Laredo United South,74.57,213.19,129.27,210.92,553.38,Single-ply,SBD,M
Boys,74.84,2,Bryce Turner,Laredo Alexander,73.57,204.12,151.95,195.04,551.11,Single-ply,SBD,M
Boys,74.84,3,Sergio Garcia,Laredo Nixon,74.48,231.33,111.13,201.85,544.31,Single-ply,SBD,M
Boys,74.84,4,Yahir Garcia,Laredo United South,74.21,188.24,117.93,219.99,526.17,Single-ply,SBD,M
Boys,74.84,5,Miguel Alvarez,Zapata,71.3,188.24,115.67,206.38,510.29,Single-ply,SBD,M
Boys,74.84,6,Rene Ruiz,Hebbronville,73.66,174.63,111.13,195.04,480.81,Single-ply,SBD,M
Boys,74.84,7,Andy DeLeon,Laredo Nixon,74.3,165.56,97.52,204.12,467.2,Single-ply,SBD,M
Boys,74.84,8,Mark Molina,Laredo Cigarroa,72.21,176.9,88.45,190.51,455.86,Single-ply,SBD,M
Boys,74.84,9,Jonathan Brooks,Laredo Martin,74.84,161.03,97.52,183.7,442.25,Single-ply,SBD,M
Boys,74.84,10,Marc Cerda,Laredo United,70.22,133.81,97.52,185.97,417.3,Single-ply,SBD,M
Boys,74.84,11,Eduardo Sepulveda,Laredo Johnson,74.21,154.22,90.72,158.76,403.7,Single-ply,SBD,M
Boys,74.84,12,Armando Ramirez,Laredo United,69.04,122.47,81.65,151.95,356.07,Single-ply,SBD,M
Boys,82.1,1,Victor Ramos,Laredo United South,81.83,226.8,140.61,240.4,607.81,Single-ply,SBD,M
Boys,82.1,2,Arnold Sauceda,Hebbronville,80.1,251.74,127.01,217.72,596.47,Single-ply,SBD,M
Boys,82.1,3,Rene Ramirez,Hebbronville,79.11,199.58,124.74,226.8,551.11,Single-ply,SBD,M
Boys,82.1,4,Chris Ortiz,Laredo Nixon,79.74,185.97,108.86,249.48,544.31,Single-ply,SBD,M
Boys,89.81,5,Adrian Garcia,Roma,82.33,206.38,117.93,185.97,510.29,Single-ply,SBD,M
Boys,82.1,6,Jacob Garza,Hebbronville,79.02,213.19,106.59,174.63,494.42,Single-ply,SBD,M
Boys,82.1,7,Eloy Soto,Laredo Cigarroa,78.83,167.83,117.93,185.97,471.74,Single-ply,SBD,M
Boys,82.1,8,Mathew Guzman,Laredo Nixon,81.01,197.31,90.72,161.03,449.06,Single-ply,SBD,M
Boys,82.1,9,Andy Saucedo,Laredo United,80.65,170.1,90.72,185.97,446.79,Single-ply,SBD,M
Boys,82.1,10,Danny DeLeon,Laredo Nixon,80.74,170.1,90.72,158.76,419.57,Single-ply,SBD,M
Boys,82.1,11,Gustavo Cano,Laredo Martin,77.29,167.83,95.25,149.69,412.77,Single-ply,SBD,M
Boys,82.1,12,Eddie McCoy,Laredo Nixon,75.57,136.08,81.65,161.03,378.75,Single-ply,SBD,M
Boys,82.1,13,Eddie Alarcon,Laredo Nixon,81.1,106.59,70.31,136.08,312.98,Single-ply,SBD,M
Boys,82.1,DQ,Juan Cisneros,Laredo Johnson,79.65,,,,,Single-ply,SBD,M
Boys,89.81,1,Noe Gonzalez,Laredo United South,89.27,240.4,140.61,240.4,621.42,Single-ply,SBD,M
Boys,99.79,2,Jonathan Vela,Roma,89.99,217.72,158.76,215.46,591.94,Single-ply,SBD,M
Boys,89.81,3,Jose Anaya,Laredo United South,86.45,231.33,115.67,222.26,569.26,Single-ply,SBD,M
Boys,89.81,4,David Oliva,Laredo Martin,89.72,210.92,142.88,190.51,544.31,Single-ply,SBD,M
Boys,89.81,5,Liam McMaham,Bruni,85.46,183.7,117.93,183.7,485.34,Single-ply,SBD,M
Boys,89.81,6,Jonathan Rodriguez,Laredo Nixon,84.82,147.42,97.52,204.12,449.06,Single-ply,SBD,M
Boys,89.81,7,Norman Madrigal,Laredo Johnson,88.54,147.42,102.06,185.97,435.45,Single-ply,SBD,M
Boys,89.81,8,Sylvestre Martinez,Laredo Martin,89.72,138.35,102.06,188.24,428.64,Single-ply,SBD,M
Boys,89.81,9,Humberto Garcia,Roma,88.09,158.76,113.4,151.95,424.11,Single-ply,SBD,M
Boys,89.81,10,Daniel Hughes,Laredo Johnson,86.45,124.74,90.72,165.56,381.02,Single-ply,SBD,M
Boys,89.81,DQ,Austin Dale,Hebbronville,84.37,,,,,Single-ply,SBD,M
Boys,99.79,1,Jose Flores #2,Laredo Cigarroa,98.88,254.01,156.49,256.28,666.78,Single-ply,SBD,M
Boys,99.79,2,Marco Banda,Laredo Nixon,94.62,254.01,174.63,226.8,655.44,Single-ply,SBD,M
Boys,99.79,3,David Luna,Laredo Johnson,95.07,235.87,127.01,231.33,594.21,Single-ply,SBD,M
Boys,99.79,4,Cecilio Garcia,Laredo Nixon,95.98,204.12,142.88,226.8,573.79,Single-ply,SBD,M
Boys,99.79,5,Joe Vallderas,Bruni,99.61,201.85,124.74,204.12,530.7,Single-ply,SBD,M
Boys,99.79,6,Marcos Gutierrez,Hebbronville,97.79,213.19,127.01,179.17,519.36,Single-ply,SBD,M
Boys,99.79,7,Robert Vargas,Hebbronville,99.7,192.78,124.74,195.04,512.56,Single-ply,SBD,M
Boys,99.79,8,Mario Fuentes,Laredo Martin,93.89,170.1,120.2,215.46,505.76,Single-ply,SBD,M
Boys,99.79,9,Eddie Dominguez,Laredo United,95.16,181.44,97.52,199.58,478.54,Single-ply,SBD,M
Boys,109.77,10,Max Ramos,Laredo Johnson,99.97,161.03,81.65,188.24,430.91,Single-ply,SBD,M
Boys,99.79,11,Genero Chavez,Laredo Johnson,91.99,145.15,86.18,172.37,403.7,Single-ply,SBD,M
Boys,99.79,DQ,Rodrigo Saldivar,Zapata,94.17,179.17,,,,Single-ply,SBD,M
Boys,109.77,1,Max Flores,Laredo Alexander,108.5,263.08,170.1,247.21,680.39,Single-ply,SBD,M
Boys,109.77,2,Santos Alvarado,Laredo United,107.32,265.35,154.22,240.4,659.98,Single-ply,SBD,M
Boys,124.74,3,Silvestre Bustamante,Zapata,109.95,238.14,154.22,204.12,596.47,Single-ply,SBD,M
Boys,109.77,4,Augustin Lara,Laredo United South,103.15,206.38,133.81,219.99,560.19,Single-ply,SBD,M
Boys,109.77,5,Victor Nenque,Laredo Nixon,108.77,226.8,136.08,185.97,548.85,Single-ply,SBD,M
Boys,109.77,6,Amando Castillo,Laredo Alexander,108.59,183.7,115.67,197.31,496.68,Single-ply,SBD,M
Boys,109.77,7,Austin Hart,Laredo Alexander,106.5,183.7,95.25,204.12,483.08,Single-ply,SBD,M
Boys,109.77,8,Carlos Sáenz,Zapata,109.04,181.44,102.06,188.24,471.74,Single-ply,SBD,M
Boys,109.77,9,Andrew Servin,Laredo Cigarroa,105.32,158.76,117.93,176.9,453.59,Single-ply,SBD,M
Boys,109.77,10,Luis Corenjo,Laredo Nixon,107.05,142.88,90.72,192.78,426.38,Single-ply,SBD,M
Boys,109.77,11,Jorge Rodriguez,Zapata,109.77,133.81,92.99,170.1,396.89,Single-ply,SBD,M
Boys,109.77,12,Pedro Chavarria,Laredo Cigarroa,104.42,145.15,79.38,158.76,383.29,Single-ply,SBD,M
Boys,109.77,DQ,Lazaro Leyva,Laredo Johnson,101.06,,,,,Single-ply,SBD,M
Boys,124.74,1,Carlos Sanchez,Laredo United South,123.83,260.82,131.54,254.01,646.37,Single-ply,SBD,M
Boys,124.74,2,Gustavo Diaz,Laredo Alexander,117.12,251.74,167.83,215.46,635.03,Single-ply,SBD,M
Boys,124.74+,3,Ruben Hinojosa,Roma,124.92,251.74,142.88,224.53,619.15,Single-ply,SBD,M
Boys,124.74,4,Manuel Navarro,Zapata,123.1,249.48,158.76,199.58,607.81,Single-ply,SBD,M
Boys,124.74,5,Hugo Martinez,Zapata,119.29,238.14,104.33,229.06,571.53,Single-ply,SBD,M
Boys,124.74,6,Jose Beltran,Laredo Martin,113.58,192.78,102.06,188.24,483.08,Single-ply,SBD,M
Boys,124.74,7,Efrain Batres,Laredo Martin,113.49,195.04,88.45,197.31,480.81,Single-ply,SBD,M
Boys,124.74,8,Guadalupe Gonzalez,Laredo Martin,115.85,170.1,99.79,210.92,480.81,Single-ply,SBD,M
Boys,124.74,9,Mario Vasquez,Laredo Nixon,118.93,174.63,102.06,183.7,460.4,Single-ply,SBD,M
Boys,124.74,10,Zachary Gonzalez,Laredo Nixon,111.13,172.37,81.65,197.31,451.32,Single-ply,SBD,M
Boys,124.74,DQ,Gerardo Gonzalez,Laredo Nixon,124.65,226.8,,,,Single-ply,SBD,M
Boys,124.74,DQ,Eddie Medellin,Laredo Nixon,121.38,172.37,,,,Single-ply,SBD,M
Boys,124.74,DQ,Gilbert Hernandez,Laredo Cigarroa,122.74,272.16,158.76,,,Single-ply,SBD,M
Boys,124.74+,1,Rudy Flores,Laredo United South,142.61,328.85,204.12,294.84,827.81,Single-ply,SBD,M
Boys,124.74+,2,Eduardo Sanchez,Zapata,142.88,274.42,181.44,244.94,700.8,Single-ply,SBD,M
