Division,WeightClassKg,Place,Name,Team,BodyweightKg,Best3SquatKg,Best3BenchKg,Best3DeadliftKg,TotalKg,Equipment,Event,Sex
Boys,51.71,1,Jordan Ruiz,Seagraves,50.26,190.51,113.4,208.65,512.56,Single-ply,SBD,M
Boys,51.71,2,Robert Sanchez #4,Andrews,50.98,115.67,68.04,113.4,297.1,Single-ply,SBD,M
Boys,51.71,3,Jarred Curtis,Post,48.63,113.4,61.23,113.4,288.03,Single-ply,SBD,M
Boys,51.71,4,Matthew Negrete,Seagraves,50.53,104.33,61.23,120.2,285.76,Single-ply,SBD,M
Boys,51.71,5,Erik Gomez,Post,50.89,111.13,56.7,117.93,285.76,Single-ply,SBD,M
Boys,55.79,6,Hayden Bolongia,Post,51.89,97.52,65.77,120.2,283.5,Single-ply,SBD,M
Boys,51.71,7,Efren Miranda,Levelland,50.71,104.33,52.16,122.47,278.96,Single-ply,SBD,M
Boys,51.71,8,Derek Adame,Plainview,50.44,111.13,49.9,106.59,267.62,Single-ply,SBD,M
Boys,51.71,9,Doran Lindsey,Slaton,50.89,92.99,38.56,97.52,229.06,Single-ply,SBD,M
Boys,51.71,10,Kobe Ratliff,Lubbock Christian,46.99,43.09,43.09,83.91,170.1,Single-ply,SBD,M
Boys,51.71,DQ,Eric Hernandez,Andrews,50.53,90.72,,,,Single-ply,SBD,M
Boys,55.79,1,Van Phan,Lamesa,55.16,151.95,90.72,165.56,408.23,Single-ply,SBD,M
Boys,55.79,2,Clayton Kothmann,Midland Classical Academy,53.61,142.88,72.57,149.69,365.14,Single-ply,SBD,M
Boys,55.79,3,Jacob Galindo,Odessa,55.34,120.2,74.84,145.15,340.19,Single-ply,SBD,M
Boys,59.87,4,Brandon Rhea,Andrews,55.88,111.13,61.23,131.54,303.91,Single-ply,SBD,M
Boys,55.79,5,Diago Lara,Midland Lee,53.61,99.79,70.31,113.4,283.5,Single-ply,SBD,M
Boys,55.79,6,Justin Hall,Midland Lee,55.25,102.06,61.23,113.4,276.69,Single-ply,SBD,M
Boys,55.79,7,Tandon Jones,Levelland,54.43,92.99,63.5,108.86,265.35,Single-ply,SBD,M
Boys,55.79,DQ,Emilio Miranda,Levelland,54.43,,,,,Single-ply,SBD,M
Boys,59.87,1,Adam Martin,Sudan,59.24,167.83,86.18,172.37,426.38,Single-ply,SBD,M
Boys,67.13,2,Eli Rodriguez,Seagraves,59.96,156.49,86.18,161.03,403.7,Single-ply,SBD,M
Boys,59.87,3,Cambry Gilbert,Post,56.43,149.69,72.57,154.22,376.48,Single-ply,SBD,M
Boys,59.87,4,Zane Ponder,Plainview,56.15,142.88,70.31,154.22,367.41,Single-ply,SBD,M
Boys,67.13,5,Zack Rosas,Plainview,59.96,138.35,72.57,149.69,360.61,Single-ply,SBD,M
Boys,59.87,6,Zach Sanchez,Levelland,59.42,115.67,79.38,124.74,319.78,Single-ply,SBD,M
Boys,59.87,7,Francisco Elizalde,Muleshoe,56.06,99.79,79.38,129.27,308.44,Single-ply,SBD,M
Boys,59.87,8,Isaah Jones,Post,59.78,117.93,65.77,124.74,308.44,Single-ply,SBD,M
Boys,59.87,9,Luis Castro,Plainview,56.15,104.33,68.04,127.01,299.37,Single-ply,SBD,M
Boys,67.13,10,Raul Vasquez,Andrews,60.06,111.13,63.5,117.93,292.57,Single-ply,SBD,M
Boys,59.87,11,Nathan Vasquez,Slaton,59.6,113.4,56.7,106.59,276.69,Single-ply,SBD,M
Boys,67.13,DQ,Alex Villanueva #2,Levelland,59.96,102.06,61.23,120.2,,Single-ply,SBD,M
Boys,67.13,1,Pablo Hinojosa,Lamesa,65.41,181.44,97.52,192.78,471.74,Single-ply,SBD,M
Boys,74.84,2,Lincoln Zapata,Plainview,67.31,176.9,104.33,183.7,464.93,Single-ply,SBD,M
Boys,67.13,3,Ivan Arroyo,Odessa,64.95,154.22,131.54,172.37,458.13,Single-ply,SBD,M
Boys,67.13,4,Adrian Gonzales,Floydada,67.13,172.37,90.72,181.44,444.52,Single-ply,SBD,M
Boys,67.13,5,DJ Brown,Post,62.41,158.76,104.33,172.37,435.45,Single-ply,SBD,M
Boys,67.13,6,Alex Valdez,Andrews,66.32,154.22,92.99,185.97,433.18,Single-ply,SBD,M
Boys,67.13,7,Caelon Gibson,Floydada,65.68,151.95,92.99,174.63,419.57,Single-ply,SBD,M
Boys,67.13,8,Gene Williams,Slaton,62.23,149.69,79.38,165.56,394.63,Single-ply,SBD,M
Boys,67.13,9,Alejo Rodriguez,Post,64.68,145.15,90.72,151.95,387.82,Single-ply,SBD,M
Boys,67.13,10,Daniel Martinez #20,Floydada,64.95,147.42,79.38,156.49,383.29,Single-ply,SBD,M
Boys,67.13,11,Jeremy Reyes,Odessa,60.42,136.08,74.84,161.03,371.95,Single-ply,SBD,M
Boys,67.13,12,Jack Lehman,Midland Classical Academy,65.68,133.81,81.65,156.49,371.95,Single-ply,SBD,M
Boys,67.13,13,Xavier Baker,Sudan,66.22,136.08,79.38,154.22,369.68,Single-ply,SBD,M
Boys,67.13,14,John Stein,Odessa,67.13,136.08,83.91,149.69,369.68,Single-ply,SBD,M
Boys,67.13,15,Brian Amador,Lamesa,62.23,127.01,77.11,138.35,342.46,Single-ply,SBD,M
Boys,67.13,16,Carson Williams,Plainview,61.51,127.01,72.57,127.01,326.59,Single-ply,SBD,M
Boys,67.13,17,Jesus Manzanares,Muleshoe,63.41,104.33,79.38,142.88,326.59,Single-ply,SBD,M
Boys,67.13,18,Elias Zuniga,Odessa Permian,66.13,127.01,79.38,115.67,322.05,Single-ply,SBD,M
Boys,67.13,19,Kevin Mendoza,Muleshoe,66.86,115.67,68.04,133.81,317.51,Single-ply,SBD,M
Boys,74.84,20,Alex Greenwood,Andrews,67.31,111.13,68.04,136.08,315.25,Single-ply,SBD,M
Boys,67.13,21,Patrick Fleming,Anton,61.14,102.06,52.16,131.54,285.76,Single-ply,SBD,M
Boys,67.13,22,Jake Baker,Lubbock Christian,61.42,90.72,68.04,124.74,283.5,Single-ply,SBD,M
Boys,67.13,23,Marcus Iglesias,Levelland,63.05,102.06,52.16,124.74,278.96,Single-ply,SBD,M
Boys,67.13,24,Karl Pabst,Odessa Permian,63.14,95.25,43.09,102.06,240.4,Single-ply,SBD,M
Boys,67.13,25,Chris Boren,Lubbock Christian,65.41,79.38,47.63,102.06,229.06,Single-ply,SBD,M
Boys,67.13,DQ,Brady Baker,Lubbock Christian,63.96,,,,,Single-ply,SBD,M
Boys,67.13,DQ,Hayden Dunaway,Andrews,61.33,,,,,Single-ply,SBD,M
Boys,74.84,1,Zack Ponder,Plainview,73.75,208.65,104.33,192.78,505.76,Single-ply,SBD,M
Boys,74.84,2,Isaac Stern,Post,71.94,185.97,102.06,210.92,498.95,Single-ply,SBD,M
Boys,74.84,3,Nathan Guerra,Slaton,71.49,179.17,115.67,192.78,487.61,Single-ply,SBD,M
Boys,74.84,4,Corey Richardson,Levelland,71.4,185.97,113.4,181.44,480.81,Single-ply,SBD,M
Boys,74.84,5,Eric Vega,Plainview,71.12,174.63,88.45,195.04,458.13,Single-ply,SBD,M
Boys,74.84,6,Joe Macias,Andrews,71.58,167.83,104.33,181.44,453.59,Single-ply,SBD,M
Boys,74.84,7,Luke Sherman,Lockney,74.48,165.56,106.59,176.9,449.06,Single-ply,SBD,M
Boys,74.84,8,Michael Guerrero,Lockney,74.75,158.76,108.86,174.63,442.25,Single-ply,SBD,M
Boys,74.84,9,Jake Bramlet,Lockney,72.67,163.29,92.99,176.9,433.18,Single-ply,SBD,M
Boys,74.84,10,Paden Babb,Post,67.4,170.1,90.72,170.1,430.91,Single-ply,SBD,M
Boys,74.84,11,Braden Bessire,Muleshoe,68.95,172.37,81.65,172.37,426.38,Single-ply,SBD,M
Boys,74.84,12,Alan Alaniz,Post,74.75,142.88,104.33,176.9,424.11,Single-ply,SBD,M
Boys,74.84,13,Ethan Trotter,Andrews,69.49,161.03,90.72,165.56,417.3,Single-ply,SBD,M
Boys,74.84,14,Trenton Jones,Levelland,74.84,154.22,79.38,181.44,415.04,Single-ply,SBD,M
Boys,74.84,15,Paul Perez #3,Levelland,73.44,145.15,104.33,163.29,412.77,Single-ply,SBD,M
Boys,74.84,16,Zeb Graves,Post,72.48,151.95,104.33,142.88,399.16,Single-ply,SBD,M
Boys,74.84,17,Cesar Saldana,Odessa,73.12,136.08,88.45,174.63,399.16,Single-ply,SBD,M
Boys,74.84,18,Andres Vasquez,Levelland,72.12,136.08,92.99,167.83,396.89,Single-ply,SBD,M
Boys,74.84,19,Cristian Cortez,Denver City,68.76,136.08,92.99,142.88,371.95,Single-ply,SBD,M
Boys,74.84,20,Duncan Richter,Midland Classical Academy,69.49,129.27,81.65,158.76,369.68,Single-ply,SBD,M
Boys,74.84,21,Josue Salcido,Odessa,74.84,140.61,79.38,149.69,369.68,Single-ply,SBD,M
Boys,74.84,22,Fabian Honesto,Whiteface,70.76,140.61,68.04,149.69,358.34,Single-ply,SBD,M
Boys,74.84,23,Vince Urbina,Andrews,74.84,136.08,65.77,131.54,333.39,Single-ply,SBD,M
Boys,74.84,24,Ezequiel Torres,Floydada,68.58,120.2,83.91,120.2,324.32,Single-ply,SBD,M
Boys,74.84,25,Iniel Bustos,Denver City,74.66,124.74,74.84,106.59,306.17,Single-ply,SBD,M
Boys,74.84,26,Edel Sanchez,Post,69.31,115.67,61.23,117.93,294.84,Single-ply,SBD,M
Boys,74.84,27,Tristan Fannin,Post,71.03,102.06,56.7,131.54,290.3,Single-ply,SBD,M
Boys,74.84,28,Ashton Akbar,Midland Lee,67.4,115.67,58.97,106.59,281.23,Single-ply,SBD,M
Boys,74.84,29,Justin Riley,Denver City,74.66,83.91,52.16,104.33,240.4,Single-ply,SBD,M
Boys,74.84,DQ,Tyler Hastings,Levelland,74.39,145.15,83.91,149.69,,Single-ply,SBD,M
Boys,82.1,1,Aaron Chavarria,Floydada,80.01,231.33,142.88,226.8,601.01,Single-ply,SBD,M
Boys,82.1,2,Nathaniel Gill,Post,81.65,219.99,120.2,195.04,535.24,Single-ply,SBD,M
Boys,82.1,3,Caden Dean,Post,80.65,176.9,127.01,181.44,485.34,Single-ply,SBD,M
Boys,82.1,4,Dayton Dennard,Odessa,77.56,192.78,106.59,183.7,483.08,Single-ply,SBD,M
Boys,82.1,5,Federico Carmona,Floydada,78.29,172.37,113.4,181.44,467.2,Single-ply,SBD,M
Boys,82.1,6,Bailey Settle,Plainview,77.75,188.24,104.33,172.37,464.93,Single-ply,SBD,M
Boys,82.1,7,Jose Escamila,Odessa,78.02,151.95,124.74,185.97,462.66,Single-ply,SBD,M
Boys,82.1,8,Josh Wilson,Lubbock Christian,76.38,165.56,102.06,192.78,460.4,Single-ply,SBD,M
Boys,82.1,9,Bryan Smith #5,Post,79.29,161.03,111.13,188.24,460.4,Single-ply,SBD,M
Boys,82.1,10,DruMarcus Austin,Midland Lee,77.29,158.76,95.25,199.58,453.59,Single-ply,SBD,M
Boys,82.1,11,Staley Arredondo,Lamesa,79.92,170.1,95.25,185.97,451.32,Single-ply,SBD,M
Boys,82.1,12,John David Crenshaw,Andrews,80.74,161.03,111.13,176.9,449.06,Single-ply,SBD,M
Boys,82.1,13,Kody Duncan,Levelland,76.38,165.56,99.79,181.44,446.79,Single-ply,SBD,M
Boys,82.1,14,Kain Alexander,Levelland,80.74,174.63,83.91,181.44,439.98,Single-ply,SBD,M
Boys,82.1,15,Edwin Delgado,Sudan,78.83,147.42,97.52,183.7,428.64,Single-ply,SBD,M
Boys,82.1,16,Johnny Tarango,Odessa,77.29,165.56,92.99,165.56,424.11,Single-ply,SBD,M
Boys,82.1,17,Matt Guajardo,Levelland,75.93,163.29,104.33,154.22,421.84,Single-ply,SBD,M
Boys,82.1,18,Michael Deanda,Lamesa,81.1,161.03,95.25,165.56,421.84,Single-ply,SBD,M
Boys,82.1,19,Justin Cabezuela,Odessa,80.01,151.95,111.13,156.49,419.57,Single-ply,SBD,M
Boys,82.1,20,Eric Muniz,Slaton,82.1,142.88,104.33,163.29,410.5,Single-ply,SBD,M
Boys,82.1,21,Manuel Gonzales,Plainview,81.65,154.22,88.45,165.56,408.23,Single-ply,SBD,M
Boys,82.1,22,Marciel Salinas,Slaton,82.01,131.54,81.65,179.17,392.36,Single-ply,SBD,M
Boys,82.1,23,Jacob Terry,Slaton,79.65,138.35,65.77,149.69,353.8,Single-ply,SBD,M
Boys,82.1,24,Payton Thornton,Plainview,82.01,127.01,81.65,122.47,331.12,Single-ply,SBD,M
Boys,82.1,25,Gilbert Pena,Plainview,76.38,106.59,77.11,145.15,328.85,Single-ply,SBD,M
Boys,82.1,26,Matthew Thompson #10,Sudan,76.38,95.25,61.23,117.93,274.42,Single-ply,SBD,M
Boys,82.1,27,Tano Castillo,Whiteface,77.93,92.99,54.43,113.4,260.82,Single-ply,SBD,M
Boys,82.1,DQ,Sean Salas,Plainview,81.83,133.81,,,,Single-ply,SBD,M
Boys,82.1,DQ,Avery Torres,Denver City,81.65,,,,,Single-ply,SBD,M
Boys,89.81,1,Clayton Clair,Odessa,88.45,204.12,124.74,226.8,555.65,Single-ply,SBD,M
Boys,89.81,2,Christian Galvan,Plainview,87.72,233.6,129.27,190.51,553.38,Single-ply,SBD,M
Boys,89.81,3,Rudy Vasquez,Plainview,86.64,208.65,97.52,215.46,521.63,Single-ply,SBD,M
Boys,89.81,4,Tanner Vestal,Odessa Permian,89.27,181.44,113.4,204.12,498.95,Single-ply,SBD,M
Boys,89.81,5,Ivan Delgado,Whiteface,89.81,172.37,102.06,172.37,446.79,Single-ply,SBD,M
Boys,89.81,6,Dalton Gray,Anton,86.91,174.63,83.91,183.7,442.25,Single-ply,SBD,M
Boys,89.81,7,Coleman Townsend,Plainview,85.91,181.44,99.79,151.95,433.18,Single-ply,SBD,M
Boys,89.81,8,Damion Montes,Sudan,84.1,151.95,99.79,167.83,419.57,Single-ply,SBD,M
Boys,89.81,9,Jayson Walden,Post,88.09,161.03,102.06,156.49,419.57,Single-ply,SBD,M
Boys,89.81,10,Roy Flores,Levelland,88,165.56,90.72,154.22,410.5,Single-ply,SBD,M
Boys,89.81,11,Tanner Hastings,Levelland,88.41,145.15,106.59,158.76,410.5,Single-ply,SBD,M
Boys,89.81,12,Israel Rosalez,Seagraves,88.63,149.69,104.33,147.42,401.43,Single-ply,SBD,M
Boys,89.81,13,Noah Hernandez,Odessa,84.73,158.76,83.91,149.69,392.36,Single-ply,SBD,M
Boys,89.81,14,Jesus Davila,Whiteface,84.91,136.08,88.45,165.56,390.09,Single-ply,SBD,M
Boys,89.81,15,David Camargo,Slaton,86.55,158.76,83.91,147.42,390.09,Single-ply,SBD,M
Boys,89.81,16,Isaac Saucedo,Andrews,84.1,142.88,102.06,142.88,387.82,Single-ply,SBD,M
Boys,89.81,17,Nathan Gonzales,Levelland,88.99,147.42,90.72,142.88,381.02,Single-ply,SBD,M
Boys,89.81,18,Xavier Quiroz,Odessa,86,142.88,95.25,138.35,376.48,Single-ply,SBD,M
Boys,89.81,19,Esteban Lopez,Andrews,89.72,122.47,92.99,136.08,351.53,Single-ply,SBD,M
Boys,89.81,20,Ross Steadman,Sudan,86,90.72,70.31,151.95,312.98,Single-ply,SBD,M
Boys,89.81,21,Albert Castillo,Whiteface,86.18,102.06,70.31,131.54,303.91,Single-ply,SBD,M
Boys,89.81,DQ,Cody Crabb,Slaton,85.55,,,,,Single-ply,SBD,M
Boys,89.81,DQ,Duston Vargas,Andrews,84.91,131.54,,,,Single-ply,SBD,M
Boys,89.81,DQ,Paul Ochoa,Levelland,89.54,,,,,Single-ply,SBD,M
Boys,89.81,DQ,Travis Greathouse,Post,84.46,181.44,117.93,,,Single-ply,SBD,M
Boys,89.81,DQ,Ethan Barnes,Plainview,89.09,192.78,115.67,,,Single-ply,SBD,M
Boys,99.79,1,Azel Alvidrez,Andrews,96.25,206.38,142.88,224.53,573.79,Single-ply,SBD,M
Boys,99.79,2,Eric Mendez,Plainview,97.7,215.46,113.4,229.06,557.92,Single-ply,SBD,M
Boys,99.79,3,Eddie Campos,Levelland,93.44,199.58,145.15,181.44,526.17,Single-ply,SBD,M
Boys,99.79,4,Brendan Voss,Plainview,94.53,185.97,108.86,222.26,517.1,Single-ply,SBD,M
Boys,99.79,5,Eddie Sanchez,Lamesa,95.8,204.12,122.47,190.51,517.1,Single-ply,SBD,M
Boys,99.79,6,D'Angelo Thomas,Plainview,97.43,188.24,108.86,167.83,464.93,Single-ply,SBD,M
Boys,99.79,7,Byron Hutson,Odessa,93.89,183.7,104.33,165.56,453.59,Single-ply,SBD,M
Boys,99.79,8,Saul Gallegos,Slaton,99.06,176.9,104.33,165.56,446.79,Single-ply,SBD,M
Boys,99.79,9,Ethan Embry,Plainview,93.08,163.29,90.72,161.03,415.04,Single-ply,SBD,M
Boys,99.79,10,Tony Hoyn,Midland Lee,93.62,149.69,102.06,163.29,415.04,Single-ply,SBD,M
Boys,99.79,11,Michael Coy,Odessa Permian,95.89,163.29,102.06,142.88,408.23,Single-ply,SBD,M
Boys,99.79,12,Joey Aceves,Andrews,91.44,147.42,86.18,151.95,385.55,Single-ply,SBD,M
Boys,99.79,13,John Stiles,Muleshoe,90.36,136.08,88.45,154.22,378.75,Single-ply,SBD,M
Boys,99.79,14,Bradley Lara,Midland Lee,94.44,142.88,74.84,113.4,331.12,Single-ply,SBD,M
Boys,99.79,15,Jaybren Rodriquez,Post,94.98,124.74,81.65,124.74,331.12,Single-ply,SBD,M
Boys,99.79,DQ,Matthew Foster,Lubbock Christian,96.8,,,,,Single-ply,SBD,M
Boys,99.79,DQ,Gilbert Cantu,Andrews,95.98,,,,,Single-ply,SBD,M
Boys,99.79,DQ,Luis Valenzuela,Andrews,96.25,151.95,,,,Single-ply,SBD,M
Boys,99.79,DQ,Robert Lopez,Odessa,99.61,163.29,,,,Single-ply,SBD,M
Boys,109.77,1,Trae Taylor,Levelland,106.14,281.23,149.69,278.96,709.87,Single-ply,SBD,M
Boys,109.77,2,Evan Card,Fort Stockton,103.15,215.46,117.93,213.19,546.58,Single-ply,SBD,M
Boys,109.77,3,Chris Thomas,Slaton,107.05,208.65,124.74,195.04,528.44,Single-ply,SBD,M
Boys,109.77,4,Colter Peck,Slaton,108.59,192.78,124.74,206.38,523.9,Single-ply,SBD,M
Boys,124.74,5,David Rodriguez,Muleshoe,109.95,190.51,92.99,181.44,464.93,Single-ply,SBD,M
Boys,109.77,6,Jeremiah Bernal,Odessa,108.23,179.17,97.52,174.63,451.32,Single-ply,SBD,M
Boys,109.77,7,Jesus Adame,Odessa,107.23,183.7,83.91,165.56,433.18,Single-ply,SBD,M
Boys,109.77,8,Fabian Rondan,Andrews,101.15,158.76,99.79,158.76,417.3,Single-ply,SBD,M
Boys,109.77,9,Tomas Vidales,Levelland,107.05,158.76,68.04,156.49,383.29,Single-ply,SBD,M
Boys,109.77,10,Jonathan Prieto,Odessa Permian,108.68,142.88,83.91,131.54,358.34,Single-ply,SBD,M
Boys,124.74,DQ,Mc Lawson,Odessa Permian,109.95,149.69,,,,Single-ply,SBD,M
Boys,109.77,DQ,Cruz Morales,Odessa,102.15,156.49,,,,Single-ply,SBD,M
Boys,124.74,1,Homero Ramirez,Floydada,113.13,247.21,183.7,249.48,680.39,Single-ply,SBD,M
Boys,124.74,2,Jesse Garza,Midland Lee,123.38,276.69,165.56,238.14,680.39,Single-ply,SBD,M
Boys,124.74,3,Chris Simmons,Levelland,116.03,188.24,138.35,170.1,496.68,Single-ply,SBD,M
Boys,124.74,4,Pablo Gutierrez #2,Odessa,124.65,208.65,106.59,181.44,496.68,Single-ply,SBD,M
Boys,124.74,5,Mondo Martinez,Post,113.31,174.63,108.86,172.37,455.86,Single-ply,SBD,M
Boys,124.74,6,Caydn White,Odessa Permian,119.2,165.56,88.45,181.44,435.45,Single-ply,SBD,M
Boys,124.74,7,Jordan Russell,Muleshoe,120.38,154.22,88.45,172.37,415.04,Single-ply,SBD,M
Boys,124.74,8,Gabriel Torres,Odessa,118.02,158.76,90.72,142.88,392.36,Single-ply,SBD,M
Boys,124.74,9,Ruben Ascensio,Lockney,113.76,113.4,90.72,165.56,369.68,Single-ply,SBD,M
Boys,124.74,10,Josue Chacon,Muleshoe,116.39,142.88,70.31,154.22,367.41,Single-ply,SBD,M
Boys,124.74,DQ,Jesus Olivares,Odessa Permian,116.21,176.9,,,,Single-ply,SBD,M
Boys,124.74,DQ,Chris Lara,Midland Lee,122.2,249.48,,,,Single-ply,SBD,M
Boys,124.74,DQ,Connor Kennedy,Midland Lee,124.28,138.35,,,,Single-ply,SBD,M
Boys,124.74,DQ,Reid McIlwain,Lamesa,120.75,,,,,Single-ply,SBD,M
Boys,124.74,DQ,Arturo Burrola,Denver City,111.58,172.37,90.72,,,Single-ply,SBD,M
Boys,124.74+,1,Matt Olivarez,Sudan,172.82,260.82,147.42,249.48,657.71,Single-ply,SBD,M
Boys,124.74+,2,Cole Coomer,Andrews,148.23,240.4,136.08,229.06,605.55,Single-ply,SBD,M
Boys,124.74+,3,Tommy Sotelo,Odessa,128.37,206.38,117.93,181.44,505.76,Single-ply,SBD,M
Boys,124.74+,4,Jordan Medrano,Odessa Permian,126.1,190.51,131.54,158.76,480.81,Single-ply,SBD,M
Boys,124.74+,5,Fabian Botello,Odessa,127.19,142.88,113.4,165.56,421.84,Single-ply,SBD,M
Boys,124.74+,6,Cody Amador,Lockney,165.65,138.35,122.47,156.49,417.3,Single-ply,SBD,M
Boys,124.74+,7,ZR Smith,Slaton,129.18,167.83,79.38,163.29,410.5,Single-ply,SBD,M
Boys,124.74+,8,Marriano Alonzo,Lockney,125.28,113.4,92.99,170.1,376.48,Single-ply,SBD,M
Boys,124.74+,DQ,Rudy Fores,Midland Lee,136.98,249.48,,,,Single-ply,SBD,M
Boys,124.74+,DQ,Rodrigo Rivas,Muleshoe,148.14,151.95,,,,Single-ply,SBD,M
Boys,124.74+,DQ,Jamie Murdock,Slaton,173.82,156.49,,,,Single-ply,SBD,M
Boys,124.74+,DQ,Brandon Cox,Whiteface,129.82,226.8,,,,Single-ply,SBD,M
Boys,124.74+,DQ,Brady Gandy,Whiteface,129.82,,,,,Single-ply,SBD,M
