Name,BirthDate,Sex,Equipment,Division,WeightClassKg,Best3BenchKg,TotalKg,Event,Place
Joshua Norton,,M,Multi-ply,Amateur Open,140,225,225,B,1
James Burdette,,M,Multi-ply,Pro Open,110,387.5,387.5,B,1
David Matevosian,,M,Multi-ply,Pro Open,100,375,375,B,1
Pete Giannopoulos,,M,Multi-ply,Pro Submasters 33-39,90,232.5,232.5,B,1
Cameron Gobble,,M,Multi-ply,Pro Submasters 33-39,82.5,185,185,B,1
Michael Simon,,M,Multi-ply,Pro Masters 40-44,90,262.5,262.5,B,1
Cameron Gobble,,M,Multi-ply,Pro Police,82.5,185,185,B,1
