Division,WeightClassKg,Place,Name,Team,BodyweightKg,Best3SquatKg,Best3BenchKg,Best3DeadliftKg,TotalKg,Equipment,Event,Sex
Boys,51.71,1,Isaiah Peters,Paris Chisum,47.63,95.25,49.9,102.06,247.21,Single-ply,SBD,M
Boys,55.79,1,Ryder Brock,Detroit,55.79,131.54,65.77,142.88,340.19,Single-ply,SBD,M
Boys,55.79,2,Austin Puetz,Paris,55.7,104.33,68.04,124.74,297.1,Single-ply,SBD,M
Boys,55.79,3,Scott Dudley,Paris,54.43,104.33,52.16,104.33,260.82,Single-ply,SBD,M
Boys,59.87,1,Naire Gaines,Paris,56.7,131.54,68.04,147.42,347,Single-ply,SBD,M
Boys,59.87,2,Zack Lester,Paris North Lamar,56.88,111.13,61.23,124.74,297.1,Single-ply,SBD,M
Boys,67.13,1,Clemetra Bailey,Paris,67.04,208.65,142.88,222.26,573.79,Single-ply,SBD,M
Boys,67.13,2,Tristan Brooks,Detroit,62.6,154.22,79.38,156.49,390.09,Single-ply,SBD,M
Boys,67.13,3,Aaron Whitley,Bogata Rivercrest,62.41,147.42,86.18,138.35,371.95,Single-ply,SBD,M
Boys,67.13,4,Keitron Reed,Paris North Lamar,64.59,142.88,83.91,142.88,369.68,Single-ply,SBD,M
Boys,67.13,5,Meran Blanco,Pattonville Prairiland,60.33,127.01,,167.83,294.84,Single-ply,SD,M
Boys,67.13,6,Larry Sackett,Paris Chisum,61.51,106.59,61.23,117.93,285.76,Single-ply,SBD,M
Boys,67.13,7,Tk Mason,Paris,60.6,115.67,,129.27,244.94,Single-ply,SD,M
Boys,74.84,8,Jasper Conway,Bogata Rivercrest,67.22,,68.04,145.15,213.19,Single-ply,BD,M
Boys,74.84,1,Ali Bernard,Pattonville Prairiland,70.76,190.51,122.47,204.12,517.1,Single-ply,SBD,M
Boys,74.84,2,Kidarius Corprew,Paris,74.66,204.12,111.13,172.37,487.61,Single-ply,SBD,M
Boys,74.84,3,Rob Ward #3,Bogata Rivercrest,74.3,172.37,81.65,190.51,444.52,Single-ply,SBD,M
Boys,74.84,4,Kameron Avery,Paris North Lamar,71.49,142.88,81.65,183.7,408.23,Single-ply,SBD,M
Boys,74.84,5,Michael Craig,Paris Chisum,73.75,120.2,79.38,136.08,335.66,Single-ply,SBD,M
Boys,74.84,6,Casey Harper,Paris North Lamar,71.49,90.72,63.5,111.13,265.35,Single-ply,SBD,M
Boys,82.1,1,Colton Wilson,Paris North Lamar,82.1,210.92,92.99,181.44,485.34,Single-ply,SBD,M
Boys,82.1,2,Andrew Johnson #6,Paris North Lamar,81.65,167.83,97.52,210.92,476.27,Single-ply,SBD,M
Boys,82.1,3,Travis Bryant,Detroit,81.1,181.44,95.25,181.44,458.13,Single-ply,SBD,M
Boys,82.1,4,Allen Dudley,Pattonville Prairiland,81.37,165.56,81.65,176.9,424.11,Single-ply,SBD,M
Boys,82.1,5,Josh Werline,Bogata Rivercrest,80.47,172.37,92.99,145.15,410.5,Single-ply,SBD,M
Boys,82.1,6,Zachary Graham,Pattonville Prairiland,79.47,124.74,97.52,170.1,392.36,Single-ply,SBD,M
Boys,82.1,7,Jordan Sanders,Paris,78.65,142.88,83.91,163.29,390.09,Single-ply,SBD,M
Boys,82.1,8,Keith Henderson,Detroit,80.56,113.4,74.84,136.08,324.32,Single-ply,SBD,M
Boys,89.81,9,Kendall Alexander,Paris,82.28,161.03,,154.22,315.25,Single-ply,SD,M
Boys,82.1,10,Darius Samuels,Paris,79.02,115.67,61.23,122.47,299.37,Single-ply,SBD,M
Boys,82.1,11,Calvin Cook,Paris,77.56,83.91,,115.67,199.58,Single-ply,SD,M
Boys,89.81,1,Tristan McClure,Paris,86.73,181.44,79.38,176.9,437.72,Single-ply,SBD,M
Boys,89.81,2,Joseph Winton,Paris Chisum,84.64,158.76,102.06,174.63,435.45,Single-ply,SBD,M
Boys,89.81,3,Brandon Erickson #2,Detroit,89.45,158.76,113.4,158.76,430.91,Single-ply,SBD,M
Boys,89.81,4,Jacob Akard,Paris North Lamar,83.46,117.93,88.45,136.08,342.46,Single-ply,SBD,M
Boys,89.81,5,Klayton Drake,Paris North Lamar,83.19,102.06,74.84,140.61,317.51,Single-ply,SBD,M
Boys,99.79,1,Will Jamar,Paris North Lamar,93.44,170.1,142.88,165.56,478.54,Single-ply,SBD,M
Boys,99.79,2,Geoffrey Smith,Paris,95.98,156.49,104.33,217.72,478.54,Single-ply,SBD,M
Boys,109.77,3,Riley Russell,Bogata Rivercrest,100.02,181.44,117.93,154.22,453.59,Single-ply,SBD,M
Boys,99.79,4,Cody Berry,Paris North Lamar,99.52,158.76,97.52,170.1,426.38,Single-ply,SBD,M
Boys,109.77,1,Tyler Trammel,Paris North Lamar,105.78,213.19,142.88,204.12,560.19,Single-ply,SBD,M
Boys,109.77,2,Tyler Carter,Paris North Lamar,103.51,179.17,124.74,176.9,480.81,Single-ply,SBD,M
Boys,109.77,3,Rivera Tito,Paris Chisum,107.77,165.56,102.06,190.51,458.13,Single-ply,SBD,M
Boys,109.77,4,Haskel Walker,Pattonville Prairiland,105.32,154.22,95.25,181.44,430.91,Single-ply,SBD,M
Boys,124.74,1,Jaime Humphrey,Pattonville Prairiland,122.74,217.72,92.99,199.58,510.29,Single-ply,SBD,M
Boys,124.74,2,Riley Coker,Paris,124.74,165.56,97.52,151.95,415.04,Single-ply,SBD,M
Boys,124.74+,1,Jackie Berry,Paris North Lamar,125.28,206.38,111.13,229.06,546.58,Single-ply,SBD,M
