Division,WeightClassKg,Place,Name,Team,BodyweightKg,Best3SquatKg,Best3BenchKg,Best3DeadliftKg,TotalKg,Equipment,Event,Sex
Boys,51.71,1,Vincenzo Mesza,Bovina,51.17,131.54,83.91,136.08,351.53,Single-ply,SBD,M
Boys,55.79,2,Evan Paez,Muleshoe,51.94,99.79,70.31,140.61,310.71,Single-ply,SBD,M
Boys,51.71,3,Mario Hernandez,Friona,50.94,108.86,56.7,111.13,276.69,Single-ply,SBD,M
Boys,51.71,DQ,Edwin Garcia,Friona,51.71,,,,,Single-ply,SBD,M
Boys,51.71,DQ,Korben Harman,Hale Center,51.71,,,,,Single-ply,SBD,M
Boys,55.79,1,Manuel Reyna,Anton,55.57,99.79,54.43,127.01,281.23,Single-ply,SBD,M
Boys,55.79,DQ,Linden Brown,Anton,54.43,,,,,Single-ply,SBD,M
Boys,55.79,DQ,Pete Salazar,Hale Center,55.79,,,,,Single-ply,SBD,M
Boys,59.87,1,Jonathan Hinojosa,Hale Center,56.52,131.54,81.65,147.42,360.61,Single-ply,SBD,M
Boys,67.13,2,Mark Marquez,Dimmitt,60.06,122.47,86.18,149.69,358.34,Single-ply,SBD,M
Boys,59.87,3,Diego Rodriguez,Dimmitt,57.79,124.74,86.18,145.15,356.07,Single-ply,SBD,M
Boys,59.87,4,Francisco Elizalde,Muleshoe,59.74,108.86,102.06,136.08,347,Single-ply,SBD,M
Boys,59.87,5,Christian Faustro,Vega,57.56,111.13,74.84,142.88,328.85,Single-ply,SBD,M
Boys,67.13,6,Bryan de la Torre,Bovina,60.1,120.2,68.04,138.35,326.59,Single-ply,SBD,M
Boys,67.13,7,Justice Pardo,Hale Center,60.1,113.4,70.31,129.27,312.98,Single-ply,SBD,M
Boys,59.87,8,Alex Licerio,Friona,58.6,106.59,65.77,111.13,283.5,Single-ply,SBD,M
Boys,67.13,DQ,Edgar Sanchez,Dimmitt,60.1,,,,,Single-ply,SBD,M
Boys,59.87,DQ,Luis Trejo,Friona,59.87,,,,,Single-ply,SBD,M
Boys,67.13,1,Michael DeLeon,Springlake Earth,65.14,163.29,90.72,158.76,412.77,Single-ply,SBD,M
Boys,67.13,2,Steven Anna,Plains,67.04,138.35,92.99,163.29,394.63,Single-ply,SBD,M
Boys,67.13,3,Juan Macias-Martinez,Friona,66.5,140.61,88.45,163.29,392.36,Single-ply,SBD,M
Boys,67.13,4,Estevan Gonzales,Dimmitt,66.95,120.2,79.38,181.44,381.02,Single-ply,SBD,M
Boys,67.13,5,Jorge Martinez,Dimmitt,65.5,131.54,81.65,161.03,374.21,Single-ply,SBD,M
Boys,67.13,6,Alex Pena,Dimmitt,67.09,136.08,81.65,154.22,371.95,Single-ply,SBD,M
Boys,67.13,7,Alex Marrufo,Bovina,65.18,120.2,81.65,161.03,362.87,Single-ply,SBD,M
Boys,67.13,8,Ethan Pendergrass,Anton,61.14,124.74,65.77,149.69,340.19,Single-ply,SBD,M
Boys,67.13,9,Isreal Espinoza,Bovina,63.32,113.4,81.65,145.15,340.19,Single-ply,SBD,M
Boys,74.84,10,Kevin Guevara,Bovina,67.31,113.4,68.04,138.35,319.78,Single-ply,SBD,M
Boys,67.13,11,Pedro Salazar,Bovina,64.5,92.99,77.11,122.47,292.57,Single-ply,SBD,M
Boys,67.13,12,Abraham Navarro,Dimmitt,63.59,61.23,43.09,65.77,170.1,Single-ply,SBD,M
Boys,67.13,DQ,Cristian Paez,Muleshoe,67.13,,,,,Single-ply,SBD,M
Boys,74.84,1,Emilio Espinoza,Bovina,72.48,142.88,95.25,190.51,428.64,Single-ply,SBD,M
Boys,74.84,2,Beau King,Hale Center,74.03,154.22,95.25,179.17,428.64,Single-ply,SBD,M
Boys,82.1,3,Andy Valencia,Hale Center,75.02,149.69,79.38,181.44,410.5,Single-ply,SBD,M
Boys,82.1,4,Alvaro Gardea,Friona,75.07,161.03,79.38,158.76,399.16,Single-ply,SBD,M
Boys,74.84,5,Jayden Harvey,Hale Center,69.31,149.69,83.91,149.69,383.29,Single-ply,SBD,M
Boys,74.84,6,Julio Maldanado,Springlake Earth,71.58,129.27,81.65,170.1,381.02,Single-ply,SBD,M
Boys,74.84,7,Caden Victor,Vega,69.04,124.74,74.84,140.61,340.19,Single-ply,SBD,M
Boys,74.84,DQ,Trevor Lewis,Plains,74.84,,,,,Single-ply,SBD,M
Boys,74.84,DQ,Jose Rodriguez #5,Friona,74.84,,,,,Single-ply,SBD,M
Boys,74.84,DQ,Chris Chavez,Friona,74.84,,,,,Single-ply,SBD,M
Boys,74.84,DQ,Jace Wood,Anton,74.84,,,,,Single-ply,SBD,M
Boys,74.84,DQ,Damar Sermano,Friona,73.66,,,,,Single-ply,SBD,M
Boys,82.1,DQ,Tate Richards,Springlake Earth,74.93,,,,,Single-ply,SBD,M
Boys,82.1,1,Jake Martinez,Hale Center,82.01,165.56,108.86,179.17,453.59,Single-ply,SBD,M
Boys,82.1,2,Joel Cigarroa,Friona,81.74,183.7,104.33,158.76,446.79,Single-ply,SBD,M
Boys,82.1,3,Carlos Hernandez #9,Muleshoe,80.38,176.9,77.11,190.51,444.52,Single-ply,SBD,M
Boys,89.81,4,Eyrik Ellison,Anton,82.28,167.83,81.65,158.76,408.23,Single-ply,SBD,M
Boys,82.1,5,Ceasar Olivares,Muleshoe,81.19,147.42,95.25,158.76,401.43,Single-ply,SBD,M
Boys,82.1,6,Marco Sanchez,Bovina,77.52,124.74,99.79,174.63,399.16,Single-ply,SBD,M
Boys,82.1,7,Dalton Needham,Hale Center,76.38,140.61,92.99,156.49,390.09,Single-ply,SBD,M
Boys,82.1,8,Dominic Halsey,Muleshoe,81.42,145.15,70.31,158.76,374.21,Single-ply,SBD,M
Boys,82.1,9,Sean Hernandez,Anton,80.78,136.08,72.57,154.22,362.87,Single-ply,SBD,M
Boys,82.1,10,Luis Castro,Hale Center,81.65,127.01,68.04,145.15,340.19,Single-ply,SBD,M
Boys,82.1,DQ,Blake Parker,Muleshoe,82.1,,,,,Single-ply,SBD,M
Boys,82.1,DQ,Rene Rodriguez,Friona,77.34,,,,,Single-ply,SBD,M
Boys,89.81,1,Juan Samarron,Friona,89.13,197.31,115.67,199.58,512.56,Single-ply,SBD,M
Boys,99.79,2,Luis Rodriguez,Friona,90.04,179.17,83.91,163.29,426.38,Single-ply,SBD,M
Boys,99.79,3,Fermin Medina,Dimmitt,90.04,170.1,117.93,133.81,421.84,Single-ply,SBD,M
Boys,89.81,4,Guillermo Quintana,Friona,88.59,161.03,88.45,158.76,408.23,Single-ply,SBD,M
Boys,89.81,5,Issac Summerlin,Friona,88.59,151.95,70.31,151.95,374.21,Single-ply,SBD,M
Boys,89.81,DQ,Stevan Martinez,Hale Center,85.64,,,,,Single-ply,SBD,M
Boys,89.81,DQ,Dalton Gray,Anton,88,208.65,,,,Single-ply,SBD,M
Boys,99.79,1,Tristan Hernandez,Dimmitt,98.34,185.97,122.47,210.92,519.36,Single-ply,SBD,M
Boys,99.79,2,Eric Vela,Dimmitt,99.79,176.9,124.74,174.63,476.27,Single-ply,SBD,M
Boys,99.79,3,Isaiah Lira,Plains,90.81,129.27,81.65,161.03,371.95,Single-ply,SBD,M
Boys,99.79,4,Hector Pando,Plains,90.26,129.27,86.18,90.72,306.17,Single-ply,SBD,M
Boys,99.79,DQ,David Newkirk,Vega,93.89,,,,,Single-ply,SBD,M
Boys,99.79,DQ,Jesse Lopez,Hale Center,99.79,,,,,Single-ply,SBD,M
Boys,99.79,DQ,James Martinez,Hale Center,92.62,,,,,Single-ply,SBD,M
Boys,99.79,DQ,Joseph Holloway,Hale Center,99.34,,,,,Single-ply,SBD,M
Boys,109.77,1,Lj Rodriguez,Dimmitt,105.55,197.31,122.47,226.8,546.58,Single-ply,SBD,M
Boys,109.77,2,Gavin Flores,Dimmitt,108.68,213.19,120.2,204.12,537.51,Single-ply,SBD,M
Boys,109.77,DQ,Miguel Davila,Friona,109.77,,,,,Single-ply,SBD,M
Boys,124.74,1,Camillo De La Rosa,Bovina,121.38,244.94,138.35,208.65,591.94,Single-ply,SBD,M
Boys,124.74,2,Scott Martin,Dimmitt,110.09,208.65,122.47,235.87,566.99,Single-ply,SBD,M
Boys,124.74,3,David Rodriguez,Muleshoe,114.85,240.4,127.01,199.58,566.99,Single-ply,SBD,M
Boys,124.74,DQ,Joel Salas,Bovina,124.74,,,,,Single-ply,SBD,M
Boys,124.74,DQ,Marcus Sandoval,Springlake Earth,123.83,,,,,Single-ply,SBD,M
Boys,124.74+,1,Santos Jackson,Dimmitt,147.19,226.8,122.47,204.12,553.38,Single-ply,SBD,M
Boys,124.74+,DQ,Edgar Guerrero,Friona,136.62,290.3,,,,Single-ply,SBD,M
